Library\Bee\artifacts\mvdfrm\UnityEditor.Graphs.dll_22F9D3028F0B9CDD.mvfrm
Library\Bee\artifacts\mvdfrm\UnityEditor.CoreModule.dll_22C5F3F547287DAB.mvfrm
Library\Bee\artifacts\mvdfrm\UnityEditor.DeviceSimulatorModule.dll_F1A75FCD7209CD06.mvfrm
Library\Bee\artifacts\mvdfrm\UnityEditor.DiagnosticsModule.dll_18E1D4648ECE4DD4.mvfrm
Library\Bee\artifacts\mvdfrm\UnityEditor.dll_A41E5800F6289BFA.mvfrm
Library\Bee\artifacts\mvdfrm\UnityEditor.GraphViewModule.dll_FDE4F623400BFF2B.mvfrm
Library\Bee\artifacts\mvdfrm\UnityEditor.PackageManagerUIModule.dll_AF2F875A8F517347.mvfrm
Library\Bee\artifacts\mvdfrm\UnityEditor.QuickSearchModule.dll_A3F15571E7A54A2D.mvfrm
Library\Bee\artifacts\mvdfrm\UnityEditor.SceneTemplateModule.dll_5A806AAAD91E404E.mvfrm
Library\Bee\artifacts\mvdfrm\UnityEditor.TextCoreFontEngineModule.dll_BB14637B1CEC52C9.mvfrm
Library\Bee\artifacts\mvdfrm\UnityEditor.TextCoreTextEngineModule.dll_02FC99ECAC700BE7.mvfrm
Library\Bee\artifacts\mvdfrm\UnityEditor.UIBuilderModule.dll_526DA33FB2C4785F.mvfrm
Library\Bee\artifacts\mvdfrm\UnityEditor.UIElementsModule.dll_4205039B82A36B07.mvfrm
Library\Bee\artifacts\mvdfrm\UnityEditor.UIElementsSamplesModule.dll_DB9922C5497A63D6.mvfrm
Library\Bee\artifacts\mvdfrm\UnityEditor.UIServiceModule.dll_8B5FB4A29BFBC879.mvfrm
Library\Bee\artifacts\mvdfrm\UnityEditor.UnityConnectModule.dll_52B3F2F985F901E1.mvfrm
Library\Bee\artifacts\mvdfrm\UnityEngine.AccessibilityModule.dll_8D25D641D99467EB.mvfrm
Library\Bee\artifacts\mvdfrm\UnityEngine.AIModule.dll_6ED7FE1ACB08C49F.mvfrm
Library\Bee\artifacts\mvdfrm\UnityEngine.AndroidJNIModule.dll_C04DEC6ECBC2D9DD.mvfrm
Library\Bee\artifacts\mvdfrm\UnityEngine.AnimationModule.dll_CC6A724C1A68D3D1.mvfrm
Library\Bee\artifacts\mvdfrm\UnityEngine.ARModule.dll_284AC31E28262368.mvfrm
Library\Bee\artifacts\mvdfrm\UnityEngine.AssetBundleModule.dll_E7DA88634A0BFF1F.mvfrm
Library\Bee\artifacts\mvdfrm\UnityEngine.AudioModule.dll_918AF4B526935883.mvfrm
Library\Bee\artifacts\mvdfrm\UnityEngine.ClothModule.dll_F87351B000B03767.mvfrm
Library\Bee\artifacts\mvdfrm\UnityEngine.ClusterInputModule.dll_D250680F3780D4A7.mvfrm
Library\Bee\artifacts\mvdfrm\UnityEngine.ClusterRendererModule.dll_F754223EE1C4DA8A.mvfrm
Library\Bee\artifacts\mvdfrm\UnityEngine.CoreModule.dll_45E6C747EF2DE8D6.mvfrm
Library\Bee\artifacts\mvdfrm\UnityEngine.CrashReportingModule.dll_49255BF53B5B5E2E.mvfrm
Library\Bee\artifacts\mvdfrm\UnityEngine.DirectorModule.dll_84B307FA160CBC73.mvfrm
Library\Bee\artifacts\mvdfrm\UnityEngine.dll_D6C29ED9549C28DF.mvfrm
Library\Bee\artifacts\mvdfrm\UnityEngine.DSPGraphModule.dll_8A046963886D8D94.mvfrm
Library\Bee\artifacts\mvdfrm\UnityEngine.GameCenterModule.dll_EA9B36899203CACE.mvfrm
Library\Bee\artifacts\mvdfrm\UnityEngine.GIModule.dll_0714472866B7ACB9.mvfrm
Library\Bee\artifacts\mvdfrm\UnityEngine.GridModule.dll_2357E33607827ECD.mvfrm
Library\Bee\artifacts\mvdfrm\UnityEngine.HotReloadModule.dll_4DB33051F59BEF53.mvfrm
Library\Bee\artifacts\mvdfrm\UnityEngine.ImageConversionModule.dll_63461FEF63E9927E.mvfrm
Library\Bee\artifacts\mvdfrm\UnityEngine.IMGUIModule.dll_C9EA941BECC4EC64.mvfrm
Library\Bee\artifacts\mvdfrm\UnityEngine.InputLegacyModule.dll_791FA381E1FDB510.mvfrm
Library\Bee\artifacts\mvdfrm\UnityEngine.InputModule.dll_F800BC659CCB7D27.mvfrm
Library\Bee\artifacts\mvdfrm\UnityEngine.JSONSerializeModule.dll_ED3D5F7DD8CFC875.mvfrm
Library\Bee\artifacts\mvdfrm\UnityEngine.LocalizationModule.dll_109D3261CEFCC7A0.mvfrm
Library\Bee\artifacts\mvdfrm\UnityEngine.ParticleSystemModule.dll_9C37A541A96CE9BC.mvfrm
Library\Bee\artifacts\mvdfrm\UnityEngine.PerformanceReportingModule.dll_FE9030B4DD57D395.mvfrm
Library\Bee\artifacts\mvdfrm\UnityEngine.Physics2DModule.dll_1910623CBB65CB66.mvfrm
Library\Bee\artifacts\mvdfrm\UnityEngine.PhysicsModule.dll_9417B4625BDF81B4.mvfrm
Library\Bee\artifacts\mvdfrm\UnityEngine.ProfilerModule.dll_B6F94130AF664380.mvfrm
Library\Bee\artifacts\mvdfrm\UnityEngine.RuntimeInitializeOnLoadManagerInitializerModule.dll_BD06F939E293082F.mvfrm
Library\Bee\artifacts\mvdfrm\UnityEngine.ScreenCaptureModule.dll_07250D02ED3BF4D7.mvfrm
Library\Bee\artifacts\mvdfrm\UnityEngine.SharedInternalsModule.dll_E7575EC4DB178DCE.mvfrm
Library\Bee\artifacts\mvdfrm\UnityEngine.SpriteMaskModule.dll_D3C7A919B3736048.mvfrm
Library\Bee\artifacts\mvdfrm\UnityEngine.SpriteShapeModule.dll_013BB5BDFFAE3729.mvfrm
Library\Bee\artifacts\mvdfrm\UnityEngine.StreamingModule.dll_80FF5F9C69F08B0F.mvfrm
Library\Bee\artifacts\mvdfrm\UnityEngine.SubstanceModule.dll_5DAA73E5B543891D.mvfrm
Library\Bee\artifacts\mvdfrm\UnityEngine.SubsystemsModule.dll_3E750F7B81BB485B.mvfrm
Library\Bee\artifacts\mvdfrm\UnityEngine.TerrainModule.dll_AE5E2FD1319DCAA2.mvfrm
Library\Bee\artifacts\mvdfrm\UnityEngine.TerrainPhysicsModule.dll_9CB24E14C2AFE449.mvfrm
Library\Bee\artifacts\mvdfrm\UnityEngine.TextCoreFontEngineModule.dll_3973DECE2FEA1194.mvfrm
Library\Bee\artifacts\mvdfrm\UnityEngine.TextCoreTextEngineModule.dll_815C153FBF6DCAB2.mvfrm
Library\Bee\artifacts\mvdfrm\UnityEngine.TextRenderingModule.dll_30647F0DA47374CC.mvfrm
Library\Bee\artifacts\mvdfrm\UnityEngine.TilemapModule.dll_4D5A9752495AABAB.mvfrm
Library\Bee\artifacts\mvdfrm\UnityEngine.TLSModule.dll_8EB1948AD3644588.mvfrm
Library\Bee\artifacts\mvdfrm\UnityEngine.UIElementsModule.dll_42B370E384E78452.mvfrm
Library\Bee\artifacts\mvdfrm\UnityEngine.UIElementsNativeModule.dll_F9A93BF000C9E369.mvfrm
Library\Bee\artifacts\mvdfrm\UnityEngine.UIModule.dll_6A4B9C48274FCA4B.mvfrm
Library\Bee\artifacts\mvdfrm\UnityEngine.UmbraModule.dll_0C5FA0CDB3BA03F6.mvfrm
Library\Bee\artifacts\mvdfrm\UnityEngine.UNETModule.dll_D88D0F313C3CDE4F.mvfrm
Library\Bee\artifacts\mvdfrm\UnityEngine.UnityAnalyticsModule.dll_BBD7160B55943BB8.mvfrm
Library\Bee\artifacts\mvdfrm\UnityEngine.UnityConnectModule.dll_401377088081028C.mvfrm
Library\Bee\artifacts\mvdfrm\UnityEngine.UnityCurlModule.dll_FF87137D8A7CC5BE.mvfrm
Library\Bee\artifacts\mvdfrm\UnityEngine.UnityTestProtocolModule.dll_975BD8B7A375B92C.mvfrm
Library\Bee\artifacts\mvdfrm\UnityEngine.UnityWebRequestAssetBundleModule.dll_09AEC1C149E06889.mvfrm
Library\Bee\artifacts\mvdfrm\UnityEngine.UnityWebRequestAudioModule.dll_768C849363C29E2D.mvfrm
Library\Bee\artifacts\mvdfrm\UnityEngine.UnityWebRequestModule.dll_74E527996EDE2CFD.mvfrm
Library\Bee\artifacts\mvdfrm\UnityEngine.UnityWebRequestTextureModule.dll_B7ADFA2A231F6BA2.mvfrm
Library\Bee\artifacts\mvdfrm\UnityEngine.UnityWebRequestWWWModule.dll_4C1E5A9BAF2D871E.mvfrm
Library\Bee\artifacts\mvdfrm\UnityEngine.VehiclesModule.dll_FC76017990368C0E.mvfrm
Library\Bee\artifacts\mvdfrm\UnityEngine.VFXModule.dll_0F902CF9A9D1AEF5.mvfrm
Library\Bee\artifacts\mvdfrm\UnityEngine.VideoModule.dll_B694791FE9257428.mvfrm
Library\Bee\artifacts\mvdfrm\UnityEngine.VirtualTexturingModule.dll_1E35F05ED97863F4.mvfrm
Library\Bee\artifacts\mvdfrm\UnityEngine.VRModule.dll_BD1DC2CDC90A4FC3.mvfrm
Library\Bee\artifacts\mvdfrm\UnityEngine.WindModule.dll_BC35A2708064673F.mvfrm
Library\Bee\artifacts\mvdfrm\UnityEngine.XRModule.dll_EFDC85D252449D21.mvfrm
Library\Bee\artifacts\mvdfrm\UnityEditor.WindowsStandalone.Extensions.dll_A013A8535F56A1A5.mvfrm